{
  "$schema": "https://schema.management.azure.com/schemas/2015-01-01/deploymentParameters.json#",
  "contentVersion": "1.0.0.0",
  "parameters": {
    "deploymentId": {
      "value": ""
    },
    "location": {
      "value": ""
    },
    "sitecoreAdminPassword": {
      "value": ""
    },
    "licenseXml": {
      "value": ""
    },
    "sqlServerLogin": {
      "value": ""
    },
    "sqlServerPassword": {
      "value": ""
    },
    "siMsDeployPackageUrl": {
      "value": ""
    },
    "singleMsDeployPackageUrl": {
      "value": ""
    },
    "xcSingleMsDeployPackageUrl": {
      "value": ""
    },
    "authCertificateBlob": {
      "value": ""
    },
    "authCertificatePassword": {
      "value": ""
    },
    "machineLearningServerConnectionString": {
      "value": ""
    },
    "machineLearningServerBlobEndpointCertificatePath": {
      "value": ""
    },
    "machineLearningServerBlobEndpointCertificatePassword": {
      "value": ""
    },
    "machineLearningServerTableEndpointCertificatePath": {
      "value": ""
    },
    "machineLearningServerTableEndpointCertificatePassword": {
      "value": ""
    },
    "machineLearningServerEndpointCertificationAuthorityCertificatePath": {
      "value": ""
    },
    "modules": {
      "value": {
        "items": [
          {
            "name": "infrastructure-custom",
            "templateLink": "https://gitlab.com/coreysmith/jss-marketing-azure/raw/master/Sitecore/addons/infrastructure-custom.json",
            "parameters": {}
          },
          {
            "name": "infrastructure-xc-custom",
            "templateLink": "https://gitlab.com/coreysmith/jss-marketing-azure/raw/master/Sitecore/addons/infrastructure-xc-custom.json",
            "parameters": {}
          },
          {
            "name": "settings",
            "templateLink": "https://gitlab.com/coreysmith/jss-marketing-azure/raw/master/Sitecore/addons/settings.json",
            "parameters": {
              "appSettings": {
                "letsencrypt:AcmeBaseUri": "https://acme-v01.api.letsencrypt.org/",
                "letsencrypt:ClientId": "",
                "letsencrypt:ClientSecret": "",
                "letsencrypt:Email": "",
                "letsencrypt:Hostnames": "",
                "letsencrypt:ResourceGroupName": "",
                "letsencrypt:SubscriptionId": "",
                "letsencrypt:Tenant": "",
                "letsencrypt:UseIPBasedSSL": "false",
                "SCM_SITEEXTENSIONS_FEED_URL": "https://www.siteextensions.net/api/v2/"
              },
              "connectionStrings": {
                "AzureWebJobsStorage": {
                  "value": "",
                  "type": "Custom"
                },
                "AzureWebJobsDashboard": {
                  "value": "",
                  "type": "Custom"
                }
              }
            }
          },
          {
            "name": "module-spe",
            "templateLink": "https://gitlab.com/coreysmith/jss-marketing-azure/raw/master/Sitecore/addons/module.json",
            "parameters": {
              "msDeployPackageUrl": ""
            }
          },
          {
            "name": "module-jss",
            "templateLink": "https://gitlab.com/coreysmith/jss-marketing-azure/raw/master/Sitecore/addons/module-jss.json",
            "parameters": {
              "msDeployPackageUrl": ""
            }
          },
          {
            "name": "ps",
            "templateLink": "https://raw.githubusercontent.com/coreyasmith/Sitecore-Publishing-Service-Azure-Templates/master/Single/azuredeploy.json",
            "parameters": {
              "templateLinkAccessToken": "",
              "psMsDeployPackageUrl": "",
              "psModuleMsDeployPackageUrl": ""
            }
          },
          {
            "name": "bootloader",
            "templateLink": "https://gitlab.com/coreysmith/jss-marketing-azure/raw/master/Sitecore/addons/bootloader.json",
            "parameters": {
              "msDeployPackageUrl": ""
            }
          },
          {
            "name": "letsencrypt",
            "templateLink": "https://gitlab.com/coreysmith/jss-marketing-azure/raw/master/Sitecore/addons/letsencrypt.json",
            "parameters": {
              "singleWebAppHostName": "",
              "subscriptionId": null,
              "servicePrincipalObjectId": ""
            }
          }
        ]
      }
    }
  }
}
