{
  "$schema": "http://schema.management.azure.com/schemas/2015-01-01/deploymentTemplate.json#",
  "contentVersion": "1.0.0.0",
  "variables": {
    "webApiVersion": "2016-08-01",

    "siWebAppNameTidy": "[toLower(trim(parameters('siWebAppName')))]",
    "singleWebAppNameTidy": "[toLower(trim(parameters('singleWebAppName')))]"
  },
  "parameters": {
    "standard": {
      "type": "secureObject",
      "defaultValue": {
        "deploymentId": null,
        "location": null,
        "singleWebAppName": null
      }
    },
    "extension": {
      "type": "secureObject",
      "defaultValue": {}
    },

    "deploymentId": {
      "type": "string",
      "defaultValue": "[coalesce(parameters('standard').deploymentId, resourceGroup().name)]"
    },
    "location": {
      "type": "string",
      "minLength": 1,
      "defaultValue": "[coalesce(parameters('standard').location, resourceGroup().location)]"
    },
    "siWebAppName": {
      "type": "string",
      "minLength": 1,
      "defaultValue": "[concat(parameters('deploymentId'), '-si')]"
    },
    "singleWebAppName": {
      "type": "string",
      "minLength": 1,
      "defaultValue": "[coalesce(parameters('standard').singleWebAppName, concat(parameters('deploymentId'), '-single'))]"
    }
  },
  "resources": [
    {
      "type": "Microsoft.Web/sites",
      "name": "[variables('siWebAppNameTidy')]",
      "apiVersion": "[variables('webApiVersion')]",
      "location": "[parameters('location')]",
      "properties": {
        "siteConfig": {
          "http20Enabled": true,
          "ftpsState": "FtpsOnly"
        },
        "clientAffinityEnabled": false
      }
    },
    {
      "type": "Microsoft.Web/sites",
      "name": "[variables('singleWebAppNameTidy')]",
      "apiVersion": "[variables('webApiVersion')]",
      "location": "[parameters('location')]",
      "properties": {
        "siteConfig": {
          "http20Enabled": true,
          "ftpsState": "FtpsOnly"
        },
        "clientAffinityEnabled": false
      }
    }
  ]
}
