{
  "$schema": "http://schema.management.azure.com/schemas/2015-01-01/deploymentTemplate.json#",
  "contentVersion": "1.0.0.0",
  "variables": {
    "webApiVersion": "2016-08-01",

    "xcSingleWebAppNameTidy": "[toLower(trim(parameters('xcSingleWebAppName')))]"
  },
  "parameters": {
    "standard": {
      "type": "secureObject",
      "defaultValue": {
        "deploymentId": null,
        "location": null,
        "xcSingleWebAppName": null
      }
    },
    "extension": {
      "type": "secureObject",
      "defaultValue": {}
    },

    "deploymentId": {
      "type": "string",
      "defaultValue": "[coalesce(parameters('standard').deploymentId, resourceGroup().name)]"
    },
    "location": {
      "type": "string",
      "minLength": 1,
      "defaultValue": "[coalesce(parameters('standard').location, resourceGroup().location)]"
    },
    "xcSingleWebAppName": {
      "type": "string",
      "minLength": 1,
      "defaultValue": "[coalesce(parameters('standard').xcSingleWebAppName, concat(parameters('deploymentId'), '-xc-single'))]"
    }
  },
  "resources": [
    {
      "type": "Microsoft.Web/sites",
      "name": "[variables('xcSingleWebAppNameTidy')]",
      "apiVersion": "[variables('webApiVersion')]",
      "location": "[parameters('location')]",
      "properties": {
        "siteConfig": {
          "http20Enabled": true,
          "ftpsState": "FtpsOnly"
        },
        "clientAffinityEnabled": false
      }
    }
  ]
}
