{
  "$schema": "http://schema.management.azure.com/schemas/2015-01-01/deploymentTemplate.json#",
  "contentVersion": "1.0.0.0",
  "variables": {
    "webApiVersion": "2016-08-01",

    "siWebAppNameTidy": "[toLower(trim(parameters('siWebAppName')))]",
    "singleWebAppNameTidy": "[toLower(trim(parameters('singleWebAppName')))]",
    "defaultAppSettings": {
      "WEBSITE_LOAD_CERTIFICATES": "[parameters('authCertificateThumbprint')]",
      "WEBSITE_DYNAMIC_CACHE": 0
    },
    "siMergedAppSettings": "[union(variables('defaultAppSettings'), parameters('commonAppSettings'), parameters('siAppSettings'))]",
    "singleMergedAppSettings": "[union(variables('defaultAppSettings'), parameters('commonAppSettings'), parameters('singleAppSettings'))]"
  },
  "parameters": {
    "standard": {
      "type": "secureObject",
      "defaultValue": {
        "infrastructure": {
          "authCertificateThumbprint": null
        },

        "deploymentId": null,
        "location": null,
        "singleWebAppName": null
      }
    },
    "extension": {
      "type": "secureObject",
      "defaultValue": {
        "authCertificateThumbprint": null,
        "commonAppSettings": {},
        "siAppSettings": {},
        "singleAppSettings": {},
        "connectionStrings": {}
      }
    },

    "deploymentId": {
      "type": "string",
      "defaultValue": "[coalesce(parameters('standard').deploymentId, resourceGroup().name)]"
    },
    "location": {
      "type": "string",
      "minLength": 1,
      "defaultValue": "[coalesce(parameters('standard').location, resourceGroup().location)]"
    },
    "siWebAppName": {
      "type": "string",
      "minLength": 1,
      "defaultValue": "[concat(parameters('deploymentId'), '-si')]"
    },
    "singleWebAppName": {
      "type": "string",
      "minLength": 1,
      "defaultValue": "[coalesce(parameters('standard').singleWebAppName, concat(parameters('deploymentId'), '-single'))]"
    },
    "authCertificateThumbprint": {
      "type": "string",
      "minLength": 8,
      "defaultValue": "[parameters('standard').infrastructure.authCertificateThumbprint]"
    },
    "commonAppSettings": {
      "type": "secureObject",
      "defaultValue": "[parameters('extension').commonAppSettings]"
    },
    "siAppSettings": {
      "type": "secureObject",
      "defaultValue": "[parameters('extension').siAppSettings]"
    },
    "singleAppSettings": {
      "type": "secureObject",
      "defaultValue": "[parameters('extension').singleAppSettings]"
    },
    "connectionStrings": {
      "type": "secureObject",
      "defaultValue": "[parameters('extension').connectionStrings]"
    }
  },
  "resources": [
    {
      "type": "Microsoft.Web/sites",
      "name": "[variables('siWebAppNameTidy')]",
      "apiVersion": "[variables('webApiVersion')]",
      "location": "[parameters('location')]",
      "properties": {},
      "resources": [
        {
          "type": "config",
          "name": "appsettings",
          "apiVersion": "[variables('webApiVersion')]",
          "properties": "[variables('siMergedAppSettings')]",
          "dependsOn": [
            "[variables('siWebAppNameTidy')]"
          ]
        },
        {
          "type": "config",
          "name": "connectionstrings",
          "apiVersion": "[variables('webApiVersion')]",
          "properties": "[parameters('connectionStrings')]",
          "dependsOn": [
            "[variables('siWebAppNameTidy')]"
          ]
        }
      ]
    },
    {
      "type": "Microsoft.Web/sites",
      "name": "[variables('singleWebAppNameTidy')]",
      "apiVersion": "[variables('webApiVersion')]",
      "location": "[parameters('location')]",
      "properties": {},
      "resources": [
        {
          "type": "config",
          "name": "appsettings",
          "apiVersion": "[variables('webApiVersion')]",
          "properties": "[variables('singleMergedAppSettings')]",
          "dependsOn": [
            "[variables('singleWebAppNameTidy')]"
          ]
        },
        {
          "type": "config",
          "name": "connectionstrings",
          "apiVersion": "[variables('webApiVersion')]",
          "properties": "[parameters('connectionStrings')]",
          "dependsOn": [
            "[variables('singleWebAppNameTidy')]"
          ]
        }
      ]
    }
  ]
}
